%!PS-Adobe-3.0 EPSF-3.0
%%Creator: MATLAB, The MathWorks, Inc. Version 7.13.0.564 (R2011b). Operating System: Microsoft Windows 7.
%%Title: C:\Users\jpaglier\Desktop\evals\noxticks.eps
%%CreationDate: 02/15/2013  23:46:30
%%DocumentNeededFonts: Helvetica
%%DocumentProcessColors: Cyan Magenta Yellow Black
%%LanguageLevel: 2
%%Pages: 1
%%BoundingBox:   -81   240   694   552
%%EndComments

%%BeginProlog
% MathWorks dictionary
/MathWorks 160 dict begin
% definition operators
/bdef {bind def} bind def
/ldef {load def} bind def
/xdef {exch def} bdef
/xstore {exch store} bdef
% operator abbreviations
/c  /clip ldef
/cc /concat ldef
/cp /closepath ldef
/gr /grestore ldef
/gs /gsave ldef
/mt /moveto ldef
/np /newpath ldef
/cm /currentmatrix ldef
/sm /setmatrix ldef
/rm /rmoveto ldef
/rl /rlineto ldef
/s {show newpath} bdef
/sc {setcmykcolor} bdef
/sr /setrgbcolor ldef
/sg /setgray ldef
/w /setlinewidth ldef
/j /setlinejoin ldef
/cap /setlinecap ldef
/rc {rectclip} bdef
/rf {rectfill} bdef
% page state control
/pgsv () def
/bpage {/pgsv save def} bdef
/epage {pgsv restore} bdef
/bplot /gsave ldef
/eplot {stroke grestore} bdef
% orientation switch
/portraitMode 0 def /landscapeMode 1 def /rotateMode 2 def
% coordinate system mappings
/dpi2point 0 def
% font control
/FontSize 0 def
/FMS {/FontSize xstore findfont [FontSize 0 0 FontSize neg 0 0]
  makefont setfont} bdef
/ISOLatin1Encoding where {pop /WindowsLatin1Encoding 256 array bdef
ISOLatin1Encoding WindowsLatin1Encoding copy pop
/.notdef/.notdef/quotesinglbase/florin/quotedblbase/ellipsis/dagger
/daggerdbl/circumflex/perthousand/Scaron/guilsinglleft/OE/.notdef/.notdef
/.notdef/.notdef/quoteleft/quoteright/quotedblleft/quotedblright/bullet
/endash/emdash/tilde/trademark/scaron/guilsinglright/oe/.notdef/.notdef
/Ydieresis WindowsLatin1Encoding 128 32 getinterval astore pop}
{/WindowsLatin1Encoding StandardEncoding bdef} ifelse
/reencode {exch dup where {pop load} {pop StandardEncoding} ifelse
  exch dup 3 1 roll findfont dup length dict begin
  { 1 index /FID ne {def}{pop pop} ifelse } forall
  /Encoding exch def currentdict end definefont pop} bdef
/isroman {findfont /CharStrings get /Agrave known} bdef
/FMSR {3 1 roll 1 index dup isroman {reencode} {pop pop} ifelse
  exch FMS} bdef
/csm {1 dpi2point div -1 dpi2point div scale neg translate
 dup landscapeMode eq {pop -90 rotate}
  {rotateMode eq {90 rotate} if} ifelse} bdef
% line types: solid, dotted, dashed, dotdash
/SO { [] 0 setdash } bdef
/DO { [.5 dpi2point mul 4 dpi2point mul] 0 setdash } bdef
/DA { [6 dpi2point mul] 0 setdash } bdef
/DD { [.5 dpi2point mul 4 dpi2point mul 6 dpi2point mul 4
  dpi2point mul] 0 setdash } bdef
% macros for lines and objects
/L {lineto stroke} bdef
/MP {3 1 roll moveto 1 sub {rlineto} repeat} bdef
/AP {{rlineto} repeat} bdef
/PDlw -1 def
/W {/PDlw currentlinewidth def setlinewidth} def
/PP {closepath eofill} bdef
/DP {closepath stroke} bdef
/MR {4 -2 roll moveto dup  0 exch rlineto exch 0 rlineto
  neg 0 exch rlineto closepath} bdef
/FR {MR stroke} bdef
/PR {MR fill} bdef
/L1i {{currentfile picstr readhexstring pop} image} bdef
/tMatrix matrix def
/MakeOval {newpath tMatrix currentmatrix pop translate scale
0 0 1 0 360 arc tMatrix setmatrix} bdef
/FO {MakeOval stroke} bdef
/PO {MakeOval fill} bdef
/PD {currentlinewidth 2 div 0 360 arc fill
   PDlw -1 eq not {PDlw w /PDlw -1 def} if} def
/FA {newpath tMatrix currentmatrix pop translate scale
  0 0 1 5 -2 roll arc tMatrix setmatrix stroke} bdef
/PA {newpath tMatrix currentmatrix pop	translate 0 0 moveto scale
  0 0 1 5 -2 roll arc closepath tMatrix setmatrix fill} bdef
/FAn {newpath tMatrix currentmatrix pop translate scale
  0 0 1 5 -2 roll arcn tMatrix setmatrix stroke} bdef
/PAn {newpath tMatrix currentmatrix pop translate 0 0 moveto scale
  0 0 1 5 -2 roll arcn closepath tMatrix setmatrix fill} bdef
/vradius 0 def /hradius 0 def /lry 0 def
/lrx 0 def /uly 0 def /ulx 0 def /rad 0 def
/MRR {/vradius xdef /hradius xdef /lry xdef /lrx xdef /uly xdef
  /ulx xdef newpath tMatrix currentmatrix pop ulx hradius add uly
  vradius add translate hradius vradius scale 0 0 1 180 270 arc 
  tMatrix setmatrix lrx hradius sub uly vradius add translate
  hradius vradius scale 0 0 1 270 360 arc tMatrix setmatrix
  lrx hradius sub lry vradius sub translate hradius vradius scale
  0 0 1 0 90 arc tMatrix setmatrix ulx hradius add lry vradius sub
  translate hradius vradius scale 0 0 1 90 180 arc tMatrix setmatrix
  closepath} bdef
/FRR {MRR stroke } bdef
/PRR {MRR fill } bdef
/MlrRR {/lry xdef /lrx xdef /uly xdef /ulx xdef /rad lry uly sub 2 div def
  newpath tMatrix currentmatrix pop ulx rad add uly rad add translate
  rad rad scale 0 0 1 90 270 arc tMatrix setmatrix lrx rad sub lry rad
  sub translate rad rad scale 0 0 1 270 90 arc tMatrix setmatrix
  closepath} bdef
/FlrRR {MlrRR stroke } bdef
/PlrRR {MlrRR fill } bdef
/MtbRR {/lry xdef /lrx xdef /uly xdef /ulx xdef /rad lrx ulx sub 2 div def
  newpath tMatrix currentmatrix pop ulx rad add uly rad add translate
  rad rad scale 0 0 1 180 360 arc tMatrix setmatrix lrx rad sub lry rad
  sub translate rad rad scale 0 0 1 0 180 arc tMatrix setmatrix
  closepath} bdef
/FtbRR {MtbRR stroke } bdef
/PtbRR {MtbRR fill } bdef
/stri 6 array def /dtri 6 array def
/smat 6 array def /dmat 6 array def
/tmat1 6 array def /tmat2 6 array def /dif 3 array def
/asub {/ind2 exch def /ind1 exch def dup dup
  ind1 get exch ind2 get sub exch } bdef
/tri_to_matrix {
  2 0 asub 3 1 asub 4 0 asub 5 1 asub
  dup 0 get exch 1 get 7 -1 roll astore } bdef
/compute_transform {
  dmat dtri tri_to_matrix tmat1 invertmatrix 
  smat stri tri_to_matrix tmat2 concatmatrix } bdef
/ds {stri astore pop} bdef
/dt {dtri astore pop} bdef
/db {2 copy /cols xdef /rows xdef mul dup 3 mul string
  currentfile 
  3 index 0 eq {/ASCIIHexDecode filter}
  {/ASCII85Decode filter 3 index 2 eq {/RunLengthDecode filter} if }
  ifelse exch readstring pop
  dup 0 3 index getinterval /rbmap xdef
  dup 2 index dup getinterval /gbmap xdef
  1 index dup 2 mul exch getinterval /bbmap xdef pop pop}bdef
/it {gs np dtri aload pop moveto lineto lineto cp c
  cols rows 8 compute_transform 
  rbmap gbmap bbmap true 3 colorimage gr}bdef
/il {newpath moveto lineto stroke}bdef
currentdict end def
%%EndProlog

%%BeginSetup
MathWorks begin

0 cap

end
%%EndSetup

%%Page: 1 1
%%BeginPageSetup
%%PageBoundingBox:   -81   240   694   552
MathWorks begin
bpage
%%EndPageSetup

%%BeginObject: obj1
bplot

/dpi2point 12 def
portraitMode -0972 6624 csm

    0     0  9304  3744 rc
85 dict begin %Colortable dictionary
/c0 { 0.000000 0.000000 0.000000 sr} bdef
/c1 { 1.000000 1.000000 1.000000 sr} bdef
/c2 { 0.900000 0.000000 0.000000 sr} bdef
/c3 { 0.000000 0.820000 0.000000 sr} bdef
/c4 { 0.000000 0.000000 0.800000 sr} bdef
/c5 { 0.910000 0.820000 0.320000 sr} bdef
/c6 { 1.000000 0.260000 0.820000 sr} bdef
/c7 { 0.000000 0.820000 0.820000 sr} bdef
c0
1 j
1 sg
   0    0 9305 3745 rf
6 w
0 3051 7210 0 0 -3051 1210 3332 4 MP
PP
-7210 0 0 3051 7210 0 0 -3051 1210 3332 5 MP stroke
4 w
DO
SO
6 w
0 sg
1210 3332 mt 8420 3332 L
1210 3332 mt 1210  281 L
1210 3332 mt 1246 3332 L
%%IncludeResource: font Helvetica
/Helvetica /WindowsLatin1Encoding 120 FMSR

1109 3376 mt 
(0) s
1210 2896 mt 1246 2896 L
 975 2940 mt 
(100) s
1210 2460 mt 1246 2460 L
 975 2504 mt 
(200) s
1210 2024 mt 1246 2024 L
 975 2068 mt 
(300) s
1210 1588 mt 1246 1588 L
 975 1632 mt 
(400) s
1210 1152 mt 1246 1152 L
 975 1196 mt 
(500) s
1210  716 mt 1246  716 L
 975  760 mt 
(600) s
1210  281 mt 1246  281 L
 975  325 mt 
(700) s
gs 1210 281 7211 3052 rc
/c8 { 0.000000 0.000000 1.000000 sr} bdef
c8
1 -12 50 -885 49 -266 49 -135 49 -65 49 -144 49 -126 49 -18 
49 -100 49 0 49 -18 49 -8 49 -44 49 -9 49 -65 49 0 
49 0 49 -9 49 -26 49 0 49 -17 50 -9 49 0 49 -17 
49 -66 49 0 49 -17 49 -9 49 -9 49 -17 49 0 49 -9 
49 -9 49 -13 49 0 49 0 49 -8 49 0 49 0 49 -9 
49 0 49 0 49 0 50 -9 49 0 49 -8 49 -9 49 0 
49 0 49 0 49 0 49 -9 49 0 49 -9 49 -8 49 0 
49 0 49 -9 49 0 49 0 49 -9 49 0 49 0 49 -9 
50 0 49 -8 49 0 49 0 49 0 49 0 49 0 49 -9 
49 0 49 0 49 0 49 0 49 0 49 -9 49 0 49 0 
49 0 49 0 49 0 49 -4 49 0 50 0 49 -9 49 0 
49 0 49 0 49 0 49 0 49 0 49 -8 49 0 49 0 
49 0 49 0 49 0 49 -9 49 0 49 0 49 0 49 -9 
49 0 49 0 50 0 49 0 49 0 49 0 49 0 49 0 
49 0 49 -9 49 0 49 0 49 0 49 0 49 0 49 -17 
49 0 49 -4 49 0 49 0 49 0 49 0 49 -5 50 0 
49 0 49 0 49 0 49 -4 49 0 49 -4 49 0 49 0 
49 -5 49 0 49 0 49 -4 49 0 49 -10 49 -7 49 -2 
49 -3 49 -2 49 -19 49 -10 1210 3332 149 MP stroke
DA
/c9 { 0.000000 0.500000 0.000000 sr} bdef
c9
1 -3 50 -179 49 -109 49 22 49 -17 49 -27 49 -34 49 -22 
49 -9 49 9 49 4 49 -17 49 -13 49 26 49 -22 49 -4 
49 21 49 -8 49 -22 49 17 49 0 50 -21 49 4 49 0 
49 -18 49 9 49 -9 49 0 49 -19 49 19 49 5 49 -15 
49 -1 49 -10 49 21 49 0 49 9 49 -23 49 4 49 -4 
49 6 49 -8 49 3 50 -7 49 2 49 12 49 -17 49 23 
49 -12 49 1 49 -6 49 -2 49 1 49 -4 49 -2 49 5 
49 -8 49 -4 49 16 49 -8 49 -11 49 7 49 3 49 -7 
50 6 49 -10 49 6 49 4 49 1 49 0 49 -3 49 4 
49 -6 49 -3 49 8 49 -9 49 5 49 2 49 -14 49 9 
49 -9 49 12 49 -3 49 1 49 -2 50 -6 49 8 49 -4 
49 5 49 -1 49 -5 49 2 49 4 49 -3 49 0 49 1 
49 -6 49 4 49 -1 49 0 49 0 49 -3 49 0 49 -1 
49 2 49 -3 50 7 49 -2 49 -1 49 1 49 -1 49 -3 
49 1 49 -2 49 1 49 2 49 5 49 -6 49 5 49 -8 
49 4 49 0 49 -5 49 1 49 1 49 2 49 -5 50 2 
49 -1 49 2 49 -3 49 1 49 0 49 0 49 -2 49 0 
49 1 49 2 49 -1 49 1 49 -4 49 1 49 -1 49 0 
49 -1 49 0 49 -1 49 -2 1210 3332 149 MP stroke
DO
/c10 { 1.000000 0.000000 0.000000 sr} bdef
c10
1 0 50 -13 49 -31 49 5 49 -18 49 -21 49 -9 49 4 
49 -22 49 18 49 -9 49 0 49 -19 49 -3 49 -9 49 11 
49 0 49 1 49 -7 49 -1 49 -2 50 4 49 -1 49 8 
49 -16 49 2 49 2 49 0 49 -6 49 -3 49 5 49 -5 
49 6 49 -3 49 -3 49 4 49 -11 49 12 49 -3 49 -4 
49 2 49 -1 49 3 50 2 49 -4 49 -4 49 3 49 -10 
49 4 49 4 49 3 49 -1 49 -2 49 -3 49 3 49 -4 
49 3 49 -3 49 -1 49 1 49 1 49 2 49 0 49 -3 
50 0 49 -4 49 3 49 4 49 -6 49 2 49 1 49 2 
49 -3 49 -1 49 0 49 1 49 0 49 -3 49 1 49 1 
49 -1 49 1 49 -1 49 0 49 1 50 -2 49 2 49 4 
49 -5 49 -3 49 2 49 1 49 -3 49 3 49 -1 49 1 
49 -1 49 1 49 -2 49 0 49 2 49 -2 49 0 49 1 
49 -3 49 2 50 -2 49 2 49 1 49 -3 49 4 49 -3 
49 1 49 -2 49 0 49 3 49 -4 49 3 49 -2 49 0 
49 0 49 -1 49 1 49 0 49 -1 49 2 49 -2 50 0 
49 1 49 0 49 -1 49 0 49 1 49 0 49 -1 49 0 
49 0 49 0 49 0 49 -1 49 1 49 -1 49 0 49 0 
49 0 49 0 49 -1 49 -1 1210 3332 149 MP stroke
gr

c10
DO
0 sg
4609 3476 mt 
(Mailbox) s
 893 2183 mt  -90 rotate
(File Size \(MB\)) s
90 rotate
1193 3375 mt 
( ) s
8404  323 mt 
( ) s
SO
1 sg
0 546 906 0 0 -546 7000 1064 4 MP
PP
-906 0 0 546 906 0 0 -546 7000 1064 5 MP stroke
4 w
DO
SO
6 w
0 sg
7000  518 mt 7906  518 L
7000 1064 mt 7906 1064 L
7906 1064 mt 7906  518 L
7000 1064 mt 7000  518 L
7000 1064 mt 7906 1064 L
7000 1064 mt 7000  518 L
7000  518 mt 7906  518 L
7000 1064 mt 7906 1064 L
7906 1064 mt 7906  518 L
7000 1064 mt 7000  518 L
7472  665 mt 
(PST) s
gs 7000 518 907 547 rc
c8
362 0 7072 623 2 MP stroke
gr

c8
0 sg
7472  834 mt 
(mbox) s
gs 7000 518 907 547 rc
DA
c9
362 0 7072 791 2 MP stroke
SO
gr

c9
0 sg
7472 1002 mt 
(EFXML) s
gs 7000 518 907 547 rc
DO
c10
362 0 7072 959 2 MP stroke
SO
gr

c10

end %%Color Dict

eplot
%%EndObject

epage
end

showpage

%%Trailer
%%EOF
