41
68
22
17
12
113
66
173
24
51
22
45
113
33
51
24
43
13
30
683
37
53
57
33
7.1
28
32
37
37
169
24
24
80
14
24
28
146
15
59
49
45
130
101
113
16
37
30
16
68
35
22
41
43
49
281
342
545
51
26
17
105
24
59
99
74
59
72
99
30
64
30
35
250
51
35
18
61
24
24
55
41
33
37
12
57
140
14
39
16
55
24
15
47
8.1
30
16
16
13
17
26
30
95
30
76
37
33
6.6
111
14
43
18
146
17
235
57
128
39
80
2.2
26
33
7.8
17
45
61
35
22
26
28
9.8
142
202
35
33
22
24
35
57
28
105
51
22
28
61
32
32
28
13