%!PS-Adobe-3.0 EPSF-3.0
%%Creator: MATLAB, The MathWorks, Inc. Version 7.13.0.564 (R2011b). Operating System: Microsoft Windows 7.
%%Title: C:\Users\jpaglier\Desktop\evals\smallticks.eps
%%CreationDate: 02/15/2013  23:47:13
%%DocumentNeededFonts: Helvetica
%%DocumentProcessColors: Cyan Magenta Yellow Black
%%LanguageLevel: 2
%%Pages: 1
%%BoundingBox:   -81   240   694   552
%%EndComments

%%BeginProlog
% MathWorks dictionary
/MathWorks 160 dict begin
% definition operators
/bdef {bind def} bind def
/ldef {load def} bind def
/xdef {exch def} bdef
/xstore {exch store} bdef
% operator abbreviations
/c  /clip ldef
/cc /concat ldef
/cp /closepath ldef
/gr /grestore ldef
/gs /gsave ldef
/mt /moveto ldef
/np /newpath ldef
/cm /currentmatrix ldef
/sm /setmatrix ldef
/rm /rmoveto ldef
/rl /rlineto ldef
/s {show newpath} bdef
/sc {setcmykcolor} bdef
/sr /setrgbcolor ldef
/sg /setgray ldef
/w /setlinewidth ldef
/j /setlinejoin ldef
/cap /setlinecap ldef
/rc {rectclip} bdef
/rf {rectfill} bdef
% page state control
/pgsv () def
/bpage {/pgsv save def} bdef
/epage {pgsv restore} bdef
/bplot /gsave ldef
/eplot {stroke grestore} bdef
% orientation switch
/portraitMode 0 def /landscapeMode 1 def /rotateMode 2 def
% coordinate system mappings
/dpi2point 0 def
% font control
/FontSize 0 def
/FMS {/FontSize xstore findfont [FontSize 0 0 FontSize neg 0 0]
  makefont setfont} bdef
/ISOLatin1Encoding where {pop /WindowsLatin1Encoding 256 array bdef
ISOLatin1Encoding WindowsLatin1Encoding copy pop
/.notdef/.notdef/quotesinglbase/florin/quotedblbase/ellipsis/dagger
/daggerdbl/circumflex/perthousand/Scaron/guilsinglleft/OE/.notdef/.notdef
/.notdef/.notdef/quoteleft/quoteright/quotedblleft/quotedblright/bullet
/endash/emdash/tilde/trademark/scaron/guilsinglright/oe/.notdef/.notdef
/Ydieresis WindowsLatin1Encoding 128 32 getinterval astore pop}
{/WindowsLatin1Encoding StandardEncoding bdef} ifelse
/reencode {exch dup where {pop load} {pop StandardEncoding} ifelse
  exch dup 3 1 roll findfont dup length dict begin
  { 1 index /FID ne {def}{pop pop} ifelse } forall
  /Encoding exch def currentdict end definefont pop} bdef
/isroman {findfont /CharStrings get /Agrave known} bdef
/FMSR {3 1 roll 1 index dup isroman {reencode} {pop pop} ifelse
  exch FMS} bdef
/csm {1 dpi2point div -1 dpi2point div scale neg translate
 dup landscapeMode eq {pop -90 rotate}
  {rotateMode eq {90 rotate} if} ifelse} bdef
% line types: solid, dotted, dashed, dotdash
/SO { [] 0 setdash } bdef
/DO { [.5 dpi2point mul 4 dpi2point mul] 0 setdash } bdef
/DA { [6 dpi2point mul] 0 setdash } bdef
/DD { [.5 dpi2point mul 4 dpi2point mul 6 dpi2point mul 4
  dpi2point mul] 0 setdash } bdef
% macros for lines and objects
/L {lineto stroke} bdef
/MP {3 1 roll moveto 1 sub {rlineto} repeat} bdef
/AP {{rlineto} repeat} bdef
/PDlw -1 def
/W {/PDlw currentlinewidth def setlinewidth} def
/PP {closepath eofill} bdef
/DP {closepath stroke} bdef
/MR {4 -2 roll moveto dup  0 exch rlineto exch 0 rlineto
  neg 0 exch rlineto closepath} bdef
/FR {MR stroke} bdef
/PR {MR fill} bdef
/L1i {{currentfile picstr readhexstring pop} image} bdef
/tMatrix matrix def
/MakeOval {newpath tMatrix currentmatrix pop translate scale
0 0 1 0 360 arc tMatrix setmatrix} bdef
/FO {MakeOval stroke} bdef
/PO {MakeOval fill} bdef
/PD {currentlinewidth 2 div 0 360 arc fill
   PDlw -1 eq not {PDlw w /PDlw -1 def} if} def
/FA {newpath tMatrix currentmatrix pop translate scale
  0 0 1 5 -2 roll arc tMatrix setmatrix stroke} bdef
/PA {newpath tMatrix currentmatrix pop	translate 0 0 moveto scale
  0 0 1 5 -2 roll arc closepath tMatrix setmatrix fill} bdef
/FAn {newpath tMatrix currentmatrix pop translate scale
  0 0 1 5 -2 roll arcn tMatrix setmatrix stroke} bdef
/PAn {newpath tMatrix currentmatrix pop translate 0 0 moveto scale
  0 0 1 5 -2 roll arcn closepath tMatrix setmatrix fill} bdef
/vradius 0 def /hradius 0 def /lry 0 def
/lrx 0 def /uly 0 def /ulx 0 def /rad 0 def
/MRR {/vradius xdef /hradius xdef /lry xdef /lrx xdef /uly xdef
  /ulx xdef newpath tMatrix currentmatrix pop ulx hradius add uly
  vradius add translate hradius vradius scale 0 0 1 180 270 arc 
  tMatrix setmatrix lrx hradius sub uly vradius add translate
  hradius vradius scale 0 0 1 270 360 arc tMatrix setmatrix
  lrx hradius sub lry vradius sub translate hradius vradius scale
  0 0 1 0 90 arc tMatrix setmatrix ulx hradius add lry vradius sub
  translate hradius vradius scale 0 0 1 90 180 arc tMatrix setmatrix
  closepath} bdef
/FRR {MRR stroke } bdef
/PRR {MRR fill } bdef
/MlrRR {/lry xdef /lrx xdef /uly xdef /ulx xdef /rad lry uly sub 2 div def
  newpath tMatrix currentmatrix pop ulx rad add uly rad add translate
  rad rad scale 0 0 1 90 270 arc tMatrix setmatrix lrx rad sub lry rad
  sub translate rad rad scale 0 0 1 270 90 arc tMatrix setmatrix
  closepath} bdef
/FlrRR {MlrRR stroke } bdef
/PlrRR {MlrRR fill } bdef
/MtbRR {/lry xdef /lrx xdef /uly xdef /ulx xdef /rad lrx ulx sub 2 div def
  newpath tMatrix currentmatrix pop ulx rad add uly rad add translate
  rad rad scale 0 0 1 180 360 arc tMatrix setmatrix lrx rad sub lry rad
  sub translate rad rad scale 0 0 1 0 180 arc tMatrix setmatrix
  closepath} bdef
/FtbRR {MtbRR stroke } bdef
/PtbRR {MtbRR fill } bdef
/stri 6 array def /dtri 6 array def
/smat 6 array def /dmat 6 array def
/tmat1 6 array def /tmat2 6 array def /dif 3 array def
/asub {/ind2 exch def /ind1 exch def dup dup
  ind1 get exch ind2 get sub exch } bdef
/tri_to_matrix {
  2 0 asub 3 1 asub 4 0 asub 5 1 asub
  dup 0 get exch 1 get 7 -1 roll astore } bdef
/compute_transform {
  dmat dtri tri_to_matrix tmat1 invertmatrix 
  smat stri tri_to_matrix tmat2 concatmatrix } bdef
/ds {stri astore pop} bdef
/dt {dtri astore pop} bdef
/db {2 copy /cols xdef /rows xdef mul dup 3 mul string
  currentfile 
  3 index 0 eq {/ASCIIHexDecode filter}
  {/ASCII85Decode filter 3 index 2 eq {/RunLengthDecode filter} if }
  ifelse exch readstring pop
  dup 0 3 index getinterval /rbmap xdef
  dup 2 index dup getinterval /gbmap xdef
  1 index dup 2 mul exch getinterval /bbmap xdef pop pop}bdef
/it {gs np dtri aload pop moveto lineto lineto cp c
  cols rows 8 compute_transform 
  rbmap gbmap bbmap true 3 colorimage gr}bdef
/il {newpath moveto lineto stroke}bdef
currentdict end def
%%EndProlog

%%BeginSetup
MathWorks begin

0 cap

end
%%EndSetup

%%Page: 1 1
%%BeginPageSetup
%%PageBoundingBox:   -81   240   694   552
MathWorks begin
bpage
%%EndPageSetup

%%BeginObject: obj1
bplot

/dpi2point 12 def
portraitMode -0972 6624 csm

    0     0  9304  3744 rc
85 dict begin %Colortable dictionary
/c0 { 0.000000 0.000000 0.000000 sr} bdef
/c1 { 1.000000 1.000000 1.000000 sr} bdef
/c2 { 0.900000 0.000000 0.000000 sr} bdef
/c3 { 0.000000 0.820000 0.000000 sr} bdef
/c4 { 0.000000 0.000000 0.800000 sr} bdef
/c5 { 0.910000 0.820000 0.320000 sr} bdef
/c6 { 1.000000 0.260000 0.820000 sr} bdef
/c7 { 0.000000 0.820000 0.820000 sr} bdef
c0
1 j
1 sg
   0    0 9305 3745 rf
6 w
0 3051 7210 0 0 -3051 1210 3332 4 MP
PP
-7210 0 0 3051 7210 0 0 -3051 1210 3332 5 MP stroke
4 w
DO
SO
6 w
0 sg
1210 3332 mt 8420 3332 L
1210 3332 mt 1210  281 L
1210 3332 mt 1210 3295 L
1259 3332 mt 1259 3295 L
1308 3332 mt 1308 3295 L
1357 3332 mt 1357 3295 L
1406 3332 mt 1406 3295 L
1455 3332 mt 1455 3295 L
1504 3332 mt 1504 3295 L
1553 3332 mt 1553 3295 L
1602 3332 mt 1602 3295 L
1651 3332 mt 1651 3295 L
1700 3332 mt 1700 3295 L
1749 3332 mt 1749 3295 L
1798 3332 mt 1798 3295 L
1847 3332 mt 1847 3295 L
1896 3332 mt 1896 3295 L
1945 3332 mt 1945 3295 L
1994 3332 mt 1994 3295 L
2043 3332 mt 2043 3295 L
2092 3332 mt 2092 3295 L
2141 3332 mt 2141 3295 L
2190 3332 mt 2190 3295 L
2240 3332 mt 2240 3295 L
2289 3332 mt 2289 3295 L
2338 3332 mt 2338 3295 L
2387 3332 mt 2387 3295 L
2436 3332 mt 2436 3295 L
2485 3332 mt 2485 3295 L
2534 3332 mt 2534 3295 L
2583 3332 mt 2583 3295 L
2632 3332 mt 2632 3295 L
2681 3332 mt 2681 3295 L
2730 3332 mt 2730 3295 L
2779 3332 mt 2779 3295 L
2828 3332 mt 2828 3295 L
2877 3332 mt 2877 3295 L
2926 3332 mt 2926 3295 L
2975 3332 mt 2975 3295 L
3024 3332 mt 3024 3295 L
3073 3332 mt 3073 3295 L
3122 3332 mt 3122 3295 L
3171 3332 mt 3171 3295 L
3220 3332 mt 3220 3295 L
3270 3332 mt 3270 3295 L
3319 3332 mt 3319 3295 L
3368 3332 mt 3368 3295 L
3417 3332 mt 3417 3295 L
3466 3332 mt 3466 3295 L
3515 3332 mt 3515 3295 L
3564 3332 mt 3564 3295 L
3613 3332 mt 3613 3295 L
3662 3332 mt 3662 3295 L
3711 3332 mt 3711 3295 L
3760 3332 mt 3760 3295 L
3809 3332 mt 3809 3295 L
3858 3332 mt 3858 3295 L
3907 3332 mt 3907 3295 L
3956 3332 mt 3956 3295 L
4005 3332 mt 4005 3295 L
4054 3332 mt 4054 3295 L
4103 3332 mt 4103 3295 L
4152 3332 mt 4152 3295 L
4201 3332 mt 4201 3295 L
4250 3332 mt 4250 3295 L
4300 3332 mt 4300 3295 L
4349 3332 mt 4349 3295 L
4398 3332 mt 4398 3295 L
4447 3332 mt 4447 3295 L
4496 3332 mt 4496 3295 L
4545 3332 mt 4545 3295 L
4594 3332 mt 4594 3295 L
4643 3332 mt 4643 3295 L
4692 3332 mt 4692 3295 L
4741 3332 mt 4741 3295 L
4790 3332 mt 4790 3295 L
4839 3332 mt 4839 3295 L
4888 3332 mt 4888 3295 L
4937 3332 mt 4937 3295 L
4986 3332 mt 4986 3295 L
5035 3332 mt 5035 3295 L
5084 3332 mt 5084 3295 L
5133 3332 mt 5133 3295 L
5182 3332 mt 5182 3295 L
5231 3332 mt 5231 3295 L
5280 3332 mt 5280 3295 L
5330 3332 mt 5330 3295 L
5379 3332 mt 5379 3295 L
5428 3332 mt 5428 3295 L
5477 3332 mt 5477 3295 L
5526 3332 mt 5526 3295 L
5575 3332 mt 5575 3295 L
5624 3332 mt 5624 3295 L
5673 3332 mt 5673 3295 L
5722 3332 mt 5722 3295 L
5771 3332 mt 5771 3295 L
5820 3332 mt 5820 3295 L
5869 3332 mt 5869 3295 L
5918 3332 mt 5918 3295 L
5967 3332 mt 5967 3295 L
6016 3332 mt 6016 3295 L
6065 3332 mt 6065 3295 L
6114 3332 mt 6114 3295 L
6163 3332 mt 6163 3295 L
6212 3332 mt 6212 3295 L
6261 3332 mt 6261 3295 L
6310 3332 mt 6310 3295 L
6360 3332 mt 6360 3295 L
6409 3332 mt 6409 3295 L
6458 3332 mt 6458 3295 L
6507 3332 mt 6507 3295 L
6556 3332 mt 6556 3295 L
6605 3332 mt 6605 3295 L
6654 3332 mt 6654 3295 L
6703 3332 mt 6703 3295 L
6752 3332 mt 6752 3295 L
6801 3332 mt 6801 3295 L
6850 3332 mt 6850 3295 L
6899 3332 mt 6899 3295 L
6948 3332 mt 6948 3295 L
6997 3332 mt 6997 3295 L
7046 3332 mt 7046 3295 L
7095 3332 mt 7095 3295 L
7144 3332 mt 7144 3295 L
7193 3332 mt 7193 3295 L
7242 3332 mt 7242 3295 L
7291 3332 mt 7291 3295 L
7340 3332 mt 7340 3295 L
7390 3332 mt 7390 3295 L
7439 3332 mt 7439 3295 L
7488 3332 mt 7488 3295 L
7537 3332 mt 7537 3295 L
7586 3332 mt 7586 3295 L
7635 3332 mt 7635 3295 L
7684 3332 mt 7684 3295 L
7733 3332 mt 7733 3295 L
7782 3332 mt 7782 3295 L
7831 3332 mt 7831 3295 L
7880 3332 mt 7880 3295 L
7929 3332 mt 7929 3295 L
7978 3332 mt 7978 3295 L
8027 3332 mt 8027 3295 L
8076 3332 mt 8076 3295 L
8125 3332 mt 8125 3295 L
8174 3332 mt 8174 3295 L
8223 3332 mt 8223 3295 L
8272 3332 mt 8272 3295 L
8321 3332 mt 8321 3295 L
8370 3332 mt 8370 3295 L
8420 3332 mt 8420 3295 L
1210 3332 mt 1246 3332 L
%%IncludeResource: font Helvetica
/Helvetica /WindowsLatin1Encoding 120 FMSR

1109 3376 mt 
(0) s
1210 2896 mt 1246 2896 L
 975 2940 mt 
(100) s
1210 2460 mt 1246 2460 L
 975 2504 mt 
(200) s
1210 2024 mt 1246 2024 L
 975 2068 mt 
(300) s
1210 1588 mt 1246 1588 L
 975 1632 mt 
(400) s
1210 1152 mt 1246 1152 L
 975 1196 mt 
(500) s
1210  716 mt 1246  716 L
 975  760 mt 
(600) s
1210  281 mt 1246  281 L
 975  325 mt 
(700) s
gs 1210 281 7211 3052 rc
/c8 { 0.000000 0.000000 1.000000 sr} bdef
c8
1 -12 50 -885 49 -266 49 -135 49 -65 49 -144 49 -126 49 -18 
49 -100 49 0 49 -18 49 -8 49 -44 49 -9 49 -65 49 0 
49 0 49 -9 49 -26 49 0 49 -17 50 -9 49 0 49 -17 
49 -66 49 0 49 -17 49 -9 49 -9 49 -17 49 0 49 -9 
49 -9 49 -13 49 0 49 0 49 -8 49 0 49 0 49 -9 
49 0 49 0 49 0 50 -9 49 0 49 -8 49 -9 49 0 
49 0 49 0 49 0 49 -9 49 0 49 -9 49 -8 49 0 
49 0 49 -9 49 0 49 0 49 -9 49 0 49 0 49 -9 
50 0 49 -8 49 0 49 0 49 0 49 0 49 0 49 -9 
49 0 49 0 49 0 49 0 49 0 49 -9 49 0 49 0 
49 0 49 0 49 0 49 -4 49 0 50 0 49 -9 49 0 
49 0 49 0 49 0 49 0 49 0 49 -8 49 0 49 0 
49 0 49 0 49 0 49 -9 49 0 49 0 49 0 49 -9 
49 0 49 0 50 0 49 0 49 0 49 0 49 0 49 0 
49 0 49 -9 49 0 49 0 49 0 49 0 49 0 49 -17 
49 0 49 -4 49 0 49 0 49 0 49 0 49 -5 50 0 
49 0 49 0 49 0 49 -4 49 0 49 -4 49 0 49 0 
49 -5 49 0 49 0 49 -4 49 0 49 -10 49 -7 49 -2 
49 -3 49 -2 49 -19 49 -10 1210 3332 149 MP stroke
DA
/c9 { 0.000000 0.500000 0.000000 sr} bdef
c9
1 -3 50 -179 49 -109 49 22 49 -17 49 -27 49 -34 49 -22 
49 -9 49 9 49 4 49 -17 49 -13 49 26 49 -22 49 -4 
49 21 49 -8 49 -22 49 17 49 0 50 -21 49 4 49 0 
49 -18 49 9 49 -9 49 0 49 -19 49 19 49 5 49 -15 
49 -1 49 -10 49 21 49 0 49 9 49 -23 49 4 49 -4 
49 6 49 -8 49 3 50 -7 49 2 49 12 49 -17 49 23 
49 -12 49 1 49 -6 49 -2 49 1 49 -4 49 -2 49 5 
49 -8 49 -4 49 16 49 -8 49 -11 49 7 49 3 49 -7 
50 6 49 -10 49 6 49 4 49 1 49 0 49 -3 49 4 
49 -6 49 -3 49 8 49 -9 49 5 49 2 49 -14 49 9 
49 -9 49 12 49 -3 49 1 49 -2 50 -6 49 8 49 -4 
49 5 49 -1 49 -5 49 2 49 4 49 -3 49 0 49 1 
49 -6 49 4 49 -1 49 0 49 0 49 -3 49 0 49 -1 
49 2 49 -3 50 7 49 -2 49 -1 49 1 49 -1 49 -3 
49 1 49 -2 49 1 49 2 49 5 49 -6 49 5 49 -8 
49 4 49 0 49 -5 49 1 49 1 49 2 49 -5 50 2 
49 -1 49 2 49 -3 49 1 49 0 49 0 49 -2 49 0 
49 1 49 2 49 -1 49 1 49 -4 49 1 49 -1 49 0 
49 -1 49 0 49 -1 49 -2 1210 3332 149 MP stroke
DO
/c10 { 1.000000 0.000000 0.000000 sr} bdef
c10
1 0 50 -13 49 -31 49 5 49 -18 49 -21 49 -9 49 4 
49 -22 49 18 49 -9 49 0 49 -19 49 -3 49 -9 49 11 
49 0 49 1 49 -7 49 -1 49 -2 50 4 49 -1 49 8 
49 -16 49 2 49 2 49 0 49 -6 49 -3 49 5 49 -5 
49 6 49 -3 49 -3 49 4 49 -11 49 12 49 -3 49 -4 
49 2 49 -1 49 3 50 2 49 -4 49 -4 49 3 49 -10 
49 4 49 4 49 3 49 -1 49 -2 49 -3 49 3 49 -4 
49 3 49 -3 49 -1 49 1 49 1 49 2 49 0 49 -3 
50 0 49 -4 49 3 49 4 49 -6 49 2 49 1 49 2 
49 -3 49 -1 49 0 49 1 49 0 49 -3 49 1 49 1 
49 -1 49 1 49 -1 49 0 49 1 50 -2 49 2 49 4 
49 -5 49 -3 49 2 49 1 49 -3 49 3 49 -1 49 1 
49 -1 49 1 49 -2 49 0 49 2 49 -2 49 0 49 1 
49 -3 49 2 50 -2 49 2 49 1 49 -3 49 4 49 -3 
49 1 49 -2 49 0 49 3 49 -4 49 3 49 -2 49 0 
49 0 49 -1 49 1 49 0 49 -1 49 2 49 -2 50 0 
49 1 49 0 49 -1 49 0 49 1 49 0 49 -1 49 0 
49 0 49 0 49 0 49 -1 49 1 49 -1 49 0 49 0 
49 0 49 0 49 -1 49 -1 1210 3332 149 MP stroke
gr

c10
DO
0 sg
4609 3509 mt 
(Mailbox) s
 893 2183 mt  -90 rotate
(File Size \(MB\)) s
90 rotate
1193 3375 mt 
( ) s
8404  323 mt 
( ) s
SO
1 sg
0 546 906 0 0 -546 7000 1064 4 MP
PP
-906 0 0 546 906 0 0 -546 7000 1064 5 MP stroke
4 w
DO
SO
6 w
0 sg
7000  518 mt 7906  518 L
7000 1064 mt 7906 1064 L
7906 1064 mt 7906  518 L
7000 1064 mt 7000  518 L
7000 1064 mt 7906 1064 L
7000 1064 mt 7000  518 L
7000  518 mt 7906  518 L
7000 1064 mt 7906 1064 L
7906 1064 mt 7906  518 L
7000 1064 mt 7000  518 L
7472  665 mt 
(PST) s
gs 7000 518 907 547 rc
c8
362 0 7072 623 2 MP stroke
gr

c8
0 sg
7472  834 mt 
(mbox) s
gs 7000 518 907 547 rc
DA
c9
362 0 7072 791 2 MP stroke
SO
gr

c9
0 sg
7472 1002 mt 
(EFXML) s
gs 7000 518 907 547 rc
DO
c10
362 0 7072 959 2 MP stroke
SO
gr

c10

end %%Color Dict

eplot
%%EndObject

epage
end

showpage

%%Trailer
%%EOF
