%!PS-Adobe-3.0 EPSF-3.0
%%Creator: MATLAB, The MathWorks, Inc. Version 7.13.0.564 (R2011b). Operating System: Microsoft Windows 7.
%%Title: C:\Users\jpaglier\Desktop\evals\withmmarkers.eps
%%CreationDate: 02/15/2013  23:38:53
%%DocumentNeededFonts: Helvetica
%%DocumentProcessColors: Cyan Magenta Yellow Black
%%LanguageLevel: 2
%%Pages: 1
%%BoundingBox:   -81   250   694   541
%%EndComments

%%BeginProlog
% MathWorks dictionary
/MathWorks 160 dict begin
% definition operators
/bdef {bind def} bind def
/ldef {load def} bind def
/xdef {exch def} bdef
/xstore {exch store} bdef
% operator abbreviations
/c  /clip ldef
/cc /concat ldef
/cp /closepath ldef
/gr /grestore ldef
/gs /gsave ldef
/mt /moveto ldef
/np /newpath ldef
/cm /currentmatrix ldef
/sm /setmatrix ldef
/rm /rmoveto ldef
/rl /rlineto ldef
/s {show newpath} bdef
/sc {setcmykcolor} bdef
/sr /setrgbcolor ldef
/sg /setgray ldef
/w /setlinewidth ldef
/j /setlinejoin ldef
/cap /setlinecap ldef
/rc {rectclip} bdef
/rf {rectfill} bdef
% page state control
/pgsv () def
/bpage {/pgsv save def} bdef
/epage {pgsv restore} bdef
/bplot /gsave ldef
/eplot {stroke grestore} bdef
% orientation switch
/portraitMode 0 def /landscapeMode 1 def /rotateMode 2 def
% coordinate system mappings
/dpi2point 0 def
% font control
/FontSize 0 def
/FMS {/FontSize xstore findfont [FontSize 0 0 FontSize neg 0 0]
  makefont setfont} bdef
/ISOLatin1Encoding where {pop /WindowsLatin1Encoding 256 array bdef
ISOLatin1Encoding WindowsLatin1Encoding copy pop
/.notdef/.notdef/quotesinglbase/florin/quotedblbase/ellipsis/dagger
/daggerdbl/circumflex/perthousand/Scaron/guilsinglleft/OE/.notdef/.notdef
/.notdef/.notdef/quoteleft/quoteright/quotedblleft/quotedblright/bullet
/endash/emdash/tilde/trademark/scaron/guilsinglright/oe/.notdef/.notdef
/Ydieresis WindowsLatin1Encoding 128 32 getinterval astore pop}
{/WindowsLatin1Encoding StandardEncoding bdef} ifelse
/reencode {exch dup where {pop load} {pop StandardEncoding} ifelse
  exch dup 3 1 roll findfont dup length dict begin
  { 1 index /FID ne {def}{pop pop} ifelse } forall
  /Encoding exch def currentdict end definefont pop} bdef
/isroman {findfont /CharStrings get /Agrave known} bdef
/FMSR {3 1 roll 1 index dup isroman {reencode} {pop pop} ifelse
  exch FMS} bdef
/csm {1 dpi2point div -1 dpi2point div scale neg translate
 dup landscapeMode eq {pop -90 rotate}
  {rotateMode eq {90 rotate} if} ifelse} bdef
% line types: solid, dotted, dashed, dotdash
/SO { [] 0 setdash } bdef
/DO { [.5 dpi2point mul 4 dpi2point mul] 0 setdash } bdef
/DA { [6 dpi2point mul] 0 setdash } bdef
/DD { [.5 dpi2point mul 4 dpi2point mul 6 dpi2point mul 4
  dpi2point mul] 0 setdash } bdef
% macros for lines and objects
/L {lineto stroke} bdef
/MP {3 1 roll moveto 1 sub {rlineto} repeat} bdef
/AP {{rlineto} repeat} bdef
/PDlw -1 def
/W {/PDlw currentlinewidth def setlinewidth} def
/PP {closepath eofill} bdef
/DP {closepath stroke} bdef
/MR {4 -2 roll moveto dup  0 exch rlineto exch 0 rlineto
  neg 0 exch rlineto closepath} bdef
/FR {MR stroke} bdef
/PR {MR fill} bdef
/L1i {{currentfile picstr readhexstring pop} image} bdef
/tMatrix matrix def
/MakeOval {newpath tMatrix currentmatrix pop translate scale
0 0 1 0 360 arc tMatrix setmatrix} bdef
/FO {MakeOval stroke} bdef
/PO {MakeOval fill} bdef
/PD {currentlinewidth 2 div 0 360 arc fill
   PDlw -1 eq not {PDlw w /PDlw -1 def} if} def
/FA {newpath tMatrix currentmatrix pop translate scale
  0 0 1 5 -2 roll arc tMatrix setmatrix stroke} bdef
/PA {newpath tMatrix currentmatrix pop	translate 0 0 moveto scale
  0 0 1 5 -2 roll arc closepath tMatrix setmatrix fill} bdef
/FAn {newpath tMatrix currentmatrix pop translate scale
  0 0 1 5 -2 roll arcn tMatrix setmatrix stroke} bdef
/PAn {newpath tMatrix currentmatrix pop translate 0 0 moveto scale
  0 0 1 5 -2 roll arcn closepath tMatrix setmatrix fill} bdef
/vradius 0 def /hradius 0 def /lry 0 def
/lrx 0 def /uly 0 def /ulx 0 def /rad 0 def
/MRR {/vradius xdef /hradius xdef /lry xdef /lrx xdef /uly xdef
  /ulx xdef newpath tMatrix currentmatrix pop ulx hradius add uly
  vradius add translate hradius vradius scale 0 0 1 180 270 arc 
  tMatrix setmatrix lrx hradius sub uly vradius add translate
  hradius vradius scale 0 0 1 270 360 arc tMatrix setmatrix
  lrx hradius sub lry vradius sub translate hradius vradius scale
  0 0 1 0 90 arc tMatrix setmatrix ulx hradius add lry vradius sub
  translate hradius vradius scale 0 0 1 90 180 arc tMatrix setmatrix
  closepath} bdef
/FRR {MRR stroke } bdef
/PRR {MRR fill } bdef
/MlrRR {/lry xdef /lrx xdef /uly xdef /ulx xdef /rad lry uly sub 2 div def
  newpath tMatrix currentmatrix pop ulx rad add uly rad add translate
  rad rad scale 0 0 1 90 270 arc tMatrix setmatrix lrx rad sub lry rad
  sub translate rad rad scale 0 0 1 270 90 arc tMatrix setmatrix
  closepath} bdef
/FlrRR {MlrRR stroke } bdef
/PlrRR {MlrRR fill } bdef
/MtbRR {/lry xdef /lrx xdef /uly xdef /ulx xdef /rad lrx ulx sub 2 div def
  newpath tMatrix currentmatrix pop ulx rad add uly rad add translate
  rad rad scale 0 0 1 180 360 arc tMatrix setmatrix lrx rad sub lry rad
  sub translate rad rad scale 0 0 1 0 180 arc tMatrix setmatrix
  closepath} bdef
/FtbRR {MtbRR stroke } bdef
/PtbRR {MtbRR fill } bdef
/stri 6 array def /dtri 6 array def
/smat 6 array def /dmat 6 array def
/tmat1 6 array def /tmat2 6 array def /dif 3 array def
/asub {/ind2 exch def /ind1 exch def dup dup
  ind1 get exch ind2 get sub exch } bdef
/tri_to_matrix {
  2 0 asub 3 1 asub 4 0 asub 5 1 asub
  dup 0 get exch 1 get 7 -1 roll astore } bdef
/compute_transform {
  dmat dtri tri_to_matrix tmat1 invertmatrix 
  smat stri tri_to_matrix tmat2 concatmatrix } bdef
/ds {stri astore pop} bdef
/dt {dtri astore pop} bdef
/db {2 copy /cols xdef /rows xdef mul dup 3 mul string
  currentfile 
  3 index 0 eq {/ASCIIHexDecode filter}
  {/ASCII85Decode filter 3 index 2 eq {/RunLengthDecode filter} if }
  ifelse exch readstring pop
  dup 0 3 index getinterval /rbmap xdef
  dup 2 index dup getinterval /gbmap xdef
  1 index dup 2 mul exch getinterval /bbmap xdef pop pop}bdef
/it {gs np dtri aload pop moveto lineto lineto cp c
  cols rows 8 compute_transform 
  rbmap gbmap bbmap true 3 colorimage gr}bdef
/il {newpath moveto lineto stroke}bdef
currentdict end def
%%EndProlog

%%BeginSetup
MathWorks begin

0 cap

end
%%EndSetup

%%Page: 1 1
%%BeginPageSetup
%%PageBoundingBox:   -81   250   694   541
MathWorks begin
bpage
%%EndPageSetup

%%BeginObject: obj1
bplot

/dpi2point 12 def
portraitMode -0972 6492 csm

    0     0  9304  3492 rc
85 dict begin %Colortable dictionary
/c0 { 0.000000 0.000000 0.000000 sr} bdef
/c1 { 1.000000 1.000000 1.000000 sr} bdef
/c2 { 0.900000 0.000000 0.000000 sr} bdef
/c3 { 0.000000 0.820000 0.000000 sr} bdef
/c4 { 0.000000 0.000000 0.800000 sr} bdef
/c5 { 0.910000 0.820000 0.320000 sr} bdef
/c6 { 1.000000 0.260000 0.820000 sr} bdef
/c7 { 0.000000 0.820000 0.820000 sr} bdef
c0
1 j
1 sg
   0    0 9305 3493 rf
6 w
0 2846 7210 0 0 -2846 1210 3108 4 MP
PP
-7210 0 0 2846 7210 0 0 -2846 1210 3108 5 MP stroke
4 w
DO
SO
6 w
0 sg
1210 3108 mt 8420 3108 L
1210 3108 mt 1210  262 L
1210 3108 mt 1210 3035 L
1258 3108 mt 1258 3035 L
1306 3108 mt 1306 3035 L
1354 3108 mt 1354 3035 L
1402 3108 mt 1402 3035 L
1450 3108 mt 1450 3035 L
1498 3108 mt 1498 3035 L
1546 3108 mt 1546 3035 L
1594 3108 mt 1594 3035 L
1642 3108 mt 1642 3035 L
1690 3108 mt 1690 3035 L
1738 3108 mt 1738 3035 L
1786 3108 mt 1786 3035 L
1834 3108 mt 1834 3035 L
1882 3108 mt 1882 3035 L
1931 3108 mt 1931 3035 L
1979 3108 mt 1979 3035 L
2027 3108 mt 2027 3035 L
2075 3108 mt 2075 3035 L
2123 3108 mt 2123 3035 L
2171 3108 mt 2171 3035 L
2219 3108 mt 2219 3035 L
2267 3108 mt 2267 3035 L
2315 3108 mt 2315 3035 L
2363 3108 mt 2363 3035 L
2411 3108 mt 2411 3035 L
2459 3108 mt 2459 3035 L
2507 3108 mt 2507 3035 L
2555 3108 mt 2555 3035 L
2603 3108 mt 2603 3035 L
2652 3108 mt 2652 3035 L
2700 3108 mt 2700 3035 L
2748 3108 mt 2748 3035 L
2796 3108 mt 2796 3035 L
2844 3108 mt 2844 3035 L
2892 3108 mt 2892 3035 L
2940 3108 mt 2940 3035 L
2988 3108 mt 2988 3035 L
3036 3108 mt 3036 3035 L
3084 3108 mt 3084 3035 L
3132 3108 mt 3132 3035 L
3180 3108 mt 3180 3035 L
3228 3108 mt 3228 3035 L
3276 3108 mt 3276 3035 L
3324 3108 mt 3324 3035 L
3373 3108 mt 3373 3035 L
3421 3108 mt 3421 3035 L
3469 3108 mt 3469 3035 L
3517 3108 mt 3517 3035 L
3565 3108 mt 3565 3035 L
3613 3108 mt 3613 3035 L
3661 3108 mt 3661 3035 L
3709 3108 mt 3709 3035 L
3757 3108 mt 3757 3035 L
3805 3108 mt 3805 3035 L
3853 3108 mt 3853 3035 L
3901 3108 mt 3901 3035 L
3949 3108 mt 3949 3035 L
3997 3108 mt 3997 3035 L
4045 3108 mt 4045 3035 L
4094 3108 mt 4094 3035 L
4142 3108 mt 4142 3035 L
4190 3108 mt 4190 3035 L
4238 3108 mt 4238 3035 L
4286 3108 mt 4286 3035 L
4334 3108 mt 4334 3035 L
4382 3108 mt 4382 3035 L
4430 3108 mt 4430 3035 L
4478 3108 mt 4478 3035 L
4526 3108 mt 4526 3035 L
4574 3108 mt 4574 3035 L
4622 3108 mt 4622 3035 L
4670 3108 mt 4670 3035 L
4718 3108 mt 4718 3035 L
4766 3108 mt 4766 3035 L
4815 3108 mt 4815 3035 L
4863 3108 mt 4863 3035 L
4911 3108 mt 4911 3035 L
4959 3108 mt 4959 3035 L
5007 3108 mt 5007 3035 L
5055 3108 mt 5055 3035 L
5103 3108 mt 5103 3035 L
5151 3108 mt 5151 3035 L
5199 3108 mt 5199 3035 L
5247 3108 mt 5247 3035 L
5295 3108 mt 5295 3035 L
5343 3108 mt 5343 3035 L
5391 3108 mt 5391 3035 L
5439 3108 mt 5439 3035 L
5487 3108 mt 5487 3035 L
5536 3108 mt 5536 3035 L
5584 3108 mt 5584 3035 L
5632 3108 mt 5632 3035 L
5680 3108 mt 5680 3035 L
5728 3108 mt 5728 3035 L
5776 3108 mt 5776 3035 L
5824 3108 mt 5824 3035 L
5872 3108 mt 5872 3035 L
5920 3108 mt 5920 3035 L
5968 3108 mt 5968 3035 L
6016 3108 mt 6016 3035 L
6064 3108 mt 6064 3035 L
6112 3108 mt 6112 3035 L
6160 3108 mt 6160 3035 L
6208 3108 mt 6208 3035 L
6257 3108 mt 6257 3035 L
6305 3108 mt 6305 3035 L
6353 3108 mt 6353 3035 L
6401 3108 mt 6401 3035 L
6449 3108 mt 6449 3035 L
6497 3108 mt 6497 3035 L
6545 3108 mt 6545 3035 L
6593 3108 mt 6593 3035 L
6641 3108 mt 6641 3035 L
6689 3108 mt 6689 3035 L
6737 3108 mt 6737 3035 L
6785 3108 mt 6785 3035 L
6833 3108 mt 6833 3035 L
6881 3108 mt 6881 3035 L
6929 3108 mt 6929 3035 L
6978 3108 mt 6978 3035 L
7026 3108 mt 7026 3035 L
7074 3108 mt 7074 3035 L
7122 3108 mt 7122 3035 L
7170 3108 mt 7170 3035 L
7218 3108 mt 7218 3035 L
7266 3108 mt 7266 3035 L
7314 3108 mt 7314 3035 L
7362 3108 mt 7362 3035 L
7410 3108 mt 7410 3035 L
7458 3108 mt 7458 3035 L
7506 3108 mt 7506 3035 L
7554 3108 mt 7554 3035 L
7602 3108 mt 7602 3035 L
7650 3108 mt 7650 3035 L
7699 3108 mt 7699 3035 L
7747 3108 mt 7747 3035 L
7795 3108 mt 7795 3035 L
7843 3108 mt 7843 3035 L
7891 3108 mt 7891 3035 L
7939 3108 mt 7939 3035 L
7987 3108 mt 7987 3035 L
8035 3108 mt 8035 3035 L
8083 3108 mt 8083 3035 L
8131 3108 mt 8131 3035 L
8179 3108 mt 8179 3035 L
8227 3108 mt 8227 3035 L
8275 3108 mt 8275 3035 L
8323 3108 mt 8323 3035 L
8371 3108 mt 8371 3035 L
8420 3108 mt 8420 3035 L
1210 3108 mt 1282 3108 L
%%IncludeResource: font Helvetica
/Helvetica /WindowsLatin1Encoding 120 FMSR

1109 3152 mt 
(0) s
1210 2701 mt 1282 2701 L
 975 2745 mt 
(100) s
1210 2294 mt 1282 2294 L
 975 2338 mt 
(200) s
1210 1888 mt 1282 1888 L
 975 1932 mt 
(300) s
1210 1481 mt 1282 1481 L
 975 1525 mt 
(400) s
1210 1075 mt 1282 1075 L
 975 1119 mt 
(500) s
1210  668 mt 1282  668 L
 975  712 mt 
(600) s
1210  262 mt 1282  262 L
 975  306 mt 
(700) s
gs 1210 262 7211 2847 rc
/c8 { 0.000000 0.000000 1.000000 sr} bdef
c8
48 -561 48 -825 48 -248 48 -126 48 -61 48 -134 48 -118 48 -16 
48 -94 48 0 48 -16 48 -8 48 -41 48 -8 49 -61 48 0 
48 0 48 -8 48 -25 48 0 48 -16 48 -8 48 0 48 -16 
48 -61 48 0 48 -17 48 -8 48 -8 49 -16 48 0 48 -8 
48 -8 48 -12 48 0 48 0 48 -9 48 0 48 0 48 -8 
48 0 48 0 48 0 48 -8 49 0 48 -8 48 -8 48 0 
48 0 48 0 48 0 48 -8 48 0 48 -8 48 -9 48 0 
48 0 48 -8 48 0 49 0 48 -8 48 0 48 0 48 -8 
48 0 48 -8 48 0 48 0 48 0 48 0 48 0 48 -8 
48 0 48 0 49 0 48 0 48 0 48 -8 48 0 48 0 
48 0 48 0 48 0 48 -4 48 0 48 0 48 -9 48 0 
48 0 49 0 48 0 48 0 48 0 48 -8 48 0 48 0 
48 0 48 0 48 0 48 -8 48 0 48 0 48 0 48 -8 
49 0 48 0 48 0 48 0 48 0 48 0 48 0 48 0 
48 0 48 -8 48 0 48 0 48 0 48 0 48 0 49 -16 
48 0 48 -4 48 0 48 0 48 0 48 0 48 -4 48 0 
48 0 48 0 48 0 48 -5 48 0 48 -4 49 0 48 0 
48 -4 48 0 48 0 48 -4 48 0 48 -9 48 -7 48 -1 
48 -3 48 -2 48 -18 48 -9 1258 3108 149 MP stroke
gr

c8
gs 1221 294 7188 2852 rc
0 j
18 23 -18 23 -18 -23 18 -23 1258 3131 5 MP
DP
18 23 -18 23 -18 -23 18 -23 1306 3122 5 MP
DP
18 23 -18 23 -18 -23 18 -23 1354 3104 5 MP
DP
18 23 -18 23 -18 -23 18 -23 1402 3102 5 MP
DP
18 23 -18 23 -18 -23 18 -23 1450 3099 5 MP
DP
18 23 -18 23 -18 -23 18 -23 1498 3098 5 MP
DP
18 23 -18 23 -18 -23 18 -23 1546 3091 5 MP
DP
18 23 -18 23 -18 -23 18 -23 1594 3082 5 MP
DP
18 23 -18 23 -18 -23 18 -23 1642 3082 5 MP
DP
18 23 -18 23 -18 -23 18 -23 1690 3078 5 MP
DP
18 23 -18 23 -18 -23 18 -23 1738 3078 5 MP
DP
18 23 -18 23 -18 -23 18 -23 1786 3078 5 MP
DP
18 23 -18 23 -18 -23 18 -23 1834 3074 5 MP
DP
18 23 -18 23 -18 -23 18 -23 1882 3074 5 MP
DP
18 23 -18 23 -18 -23 18 -23 1931 3074 5 MP
DP
18 23 -18 23 -18 -23 18 -23 1979 3070 5 MP
DP
18 23 -18 23 -18 -23 18 -23 2027 3070 5 MP
DP
18 23 -18 23 -18 -23 18 -23 2075 3065 5 MP
DP
18 23 -18 23 -18 -23 18 -23 2123 3065 5 MP
DP
18 23 -18 23 -18 -23 18 -23 2171 3065 5 MP
DP
18 23 -18 23 -18 -23 18 -23 2219 3065 5 MP
DP
18 23 -18 23 -18 -23 18 -23 2267 3065 5 MP
DP
18 23 -18 23 -18 -23 18 -23 2315 3061 5 MP
DP
18 23 -18 23 -18 -23 18 -23 2363 3061 5 MP
DP
18 23 -18 23 -18 -23 18 -23 2411 3061 5 MP
DP
18 23 -18 23 -18 -23 18 -23 2459 3061 5 MP
DP
18 23 -18 23 -18 -23 18 -23 2507 3061 5 MP
DP
18 23 -18 23 -18 -23 18 -23 2555 3057 5 MP
DP
18 23 -18 23 -18 -23 18 -23 2603 3057 5 MP
DP
18 23 -18 23 -18 -23 18 -23 2652 3041 5 MP
DP
18 23 -18 23 -18 -23 18 -23 2700 3041 5 MP
DP
18 23 -18 23 -18 -23 18 -23 2748 3041 5 MP
DP
18 23 -18 23 -18 -23 18 -23 2796 3041 5 MP
DP
18 23 -18 23 -18 -23 18 -23 2844 3041 5 MP
DP
18 23 -18 23 -18 -23 18 -23 2892 3041 5 MP
DP
18 23 -18 23 -18 -23 18 -23 2940 3033 5 MP
DP
18 23 -18 23 -18 -23 18 -23 2988 3033 5 MP
DP
18 23 -18 23 -18 -23 18 -23 3036 3033 5 MP
DP
18 23 -18 23 -18 -23 18 -23 3084 3033 5 MP
DP
18 23 -18 23 -18 -23 18 -23 3132 3033 5 MP
DP
18 23 -18 23 -18 -23 18 -23 3180 3033 5 MP
DP
18 23 -18 23 -18 -23 18 -23 3228 3033 5 MP
DP
18 23 -18 23 -18 -23 18 -23 3276 3033 5 MP
DP
18 23 -18 23 -18 -23 18 -23 3324 3033 5 MP
DP
18 23 -18 23 -18 -23 18 -23 3373 3033 5 MP
DP
18 23 -18 23 -18 -23 18 -23 3421 3025 5 MP
DP
18 23 -18 23 -18 -23 18 -23 3469 3025 5 MP
DP
18 23 -18 23 -18 -23 18 -23 3517 3025 5 MP
DP
18 23 -18 23 -18 -23 18 -23 3565 3025 5 MP
DP
18 23 -18 23 -18 -23 18 -23 3613 3017 5 MP
DP
18 23 -18 23 -18 -23 18 -23 3661 3017 5 MP
DP
18 23 -18 23 -18 -23 18 -23 3709 3017 5 MP
DP
18 23 -18 23 -18 -23 18 -23 3757 3017 5 MP
DP
18 23 -18 23 -18 -23 18 -23 3805 3017 5 MP
DP
18 23 -18 23 -18 -23 18 -23 3853 3017 5 MP
DP
18 23 -18 23 -18 -23 18 -23 3901 3009 5 MP
DP
18 23 -18 23 -18 -23 18 -23 3949 3009 5 MP
DP
18 23 -18 23 -18 -23 18 -23 3997 3009 5 MP
DP
18 23 -18 23 -18 -23 18 -23 4045 3009 5 MP
DP
18 23 -18 23 -18 -23 18 -23 4094 3009 5 MP
DP
18 23 -18 23 -18 -23 18 -23 4142 3009 5 MP
DP
18 23 -18 23 -18 -23 18 -23 4190 3009 5 MP
DP
18 23 -18 23 -18 -23 18 -23 4238 3000 5 MP
DP
18 23 -18 23 -18 -23 18 -23 4286 3000 5 MP
DP
18 23 -18 23 -18 -23 18 -23 4334 3000 5 MP
DP
18 23 -18 23 -18 -23 18 -23 4382 2996 5 MP
DP
18 23 -18 23 -18 -23 18 -23 4430 2996 5 MP
DP
18 23 -18 23 -18 -23 18 -23 4478 2996 5 MP
DP
18 23 -18 23 -18 -23 18 -23 4526 2996 5 MP
DP
18 23 -18 23 -18 -23 18 -23 4574 2996 5 MP
DP
18 23 -18 23 -18 -23 18 -23 4622 2996 5 MP
DP
18 23 -18 23 -18 -23 18 -23 4670 2988 5 MP
DP
18 23 -18 23 -18 -23 18 -23 4718 2988 5 MP
DP
18 23 -18 23 -18 -23 18 -23 4766 2988 5 MP
DP
18 23 -18 23 -18 -23 18 -23 4815 2988 5 MP
DP
18 23 -18 23 -18 -23 18 -23 4863 2988 5 MP
DP
18 23 -18 23 -18 -23 18 -23 4911 2988 5 MP
DP
18 23 -18 23 -18 -23 18 -23 4959 2980 5 MP
DP
18 23 -18 23 -18 -23 18 -23 5007 2980 5 MP
DP
18 23 -18 23 -18 -23 18 -23 5055 2980 5 MP
DP
18 23 -18 23 -18 -23 18 -23 5103 2980 5 MP
DP
18 23 -18 23 -18 -23 18 -23 5151 2980 5 MP
DP
18 23 -18 23 -18 -23 18 -23 5199 2980 5 MP
DP
18 23 -18 23 -18 -23 18 -23 5247 2972 5 MP
DP
18 23 -18 23 -18 -23 18 -23 5295 2972 5 MP
DP
18 23 -18 23 -18 -23 18 -23 5343 2964 5 MP
DP
18 23 -18 23 -18 -23 18 -23 5391 2964 5 MP
DP
18 23 -18 23 -18 -23 18 -23 5439 2964 5 MP
DP
18 23 -18 23 -18 -23 18 -23 5487 2956 5 MP
DP
18 23 -18 23 -18 -23 18 -23 5536 2956 5 MP
DP
18 23 -18 23 -18 -23 18 -23 5584 2956 5 MP
DP
18 23 -18 23 -18 -23 18 -23 5632 2948 5 MP
DP
18 23 -18 23 -18 -23 18 -23 5680 2948 5 MP
DP
18 23 -18 23 -18 -23 18 -23 5728 2948 5 MP
DP
18 23 -18 23 -18 -23 18 -23 5776 2939 5 MP
DP
18 23 -18 23 -18 -23 18 -23 5824 2931 5 MP
DP
18 23 -18 23 -18 -23 18 -23 5872 2931 5 MP
DP
18 23 -18 23 -18 -23 18 -23 5920 2923 5 MP
DP
18 23 -18 23 -18 -23 18 -23 5968 2923 5 MP
DP
18 23 -18 23 -18 -23 18 -23 6016 2923 5 MP
DP
18 23 -18 23 -18 -23 18 -23 6064 2923 5 MP
DP
18 23 -18 23 -18 -23 18 -23 6112 2923 5 MP
DP
18 23 -18 23 -18 -23 18 -23 6160 2915 5 MP
DP
18 23 -18 23 -18 -23 18 -23 6208 2907 5 MP
DP
18 23 -18 23 -18 -23 18 -23 6257 2907 5 MP
DP
18 23 -18 23 -18 -23 18 -23 6305 2899 5 MP
DP
18 23 -18 23 -18 -23 18 -23 6353 2899 5 MP
DP
18 23 -18 23 -18 -23 18 -23 6401 2899 5 MP
DP
18 23 -18 23 -18 -23 18 -23 6449 2899 5 MP
DP
18 23 -18 23 -18 -23 18 -23 6497 2891 5 MP
DP
18 23 -18 23 -18 -23 18 -23 6545 2891 5 MP
DP
18 23 -18 23 -18 -23 18 -23 6593 2891 5 MP
DP
18 23 -18 23 -18 -23 18 -23 6641 2882 5 MP
DP
18 23 -18 23 -18 -23 18 -23 6689 2882 5 MP
DP
18 23 -18 23 -18 -23 18 -23 6737 2882 5 MP
DP
18 23 -18 23 -18 -23 18 -23 6785 2870 5 MP
DP
18 23 -18 23 -18 -23 18 -23 6833 2862 5 MP
DP
18 23 -18 23 -18 -23 18 -23 6881 2854 5 MP
DP
18 23 -18 23 -18 -23 18 -23 6929 2854 5 MP
DP
18 23 -18 23 -18 -23 18 -23 6978 2838 5 MP
DP
18 23 -18 23 -18 -23 18 -23 7026 2830 5 MP
DP
18 23 -18 23 -18 -23 18 -23 7074 2822 5 MP
DP
18 23 -18 23 -18 -23 18 -23 7122 2805 5 MP
DP
18 23 -18 23 -18 -23 18 -23 7170 2805 5 MP
DP
18 23 -18 23 -18 -23 18 -23 7218 2744 5 MP
DP
18 23 -18 23 -18 -23 18 -23 7266 2728 5 MP
DP
18 23 -18 23 -18 -23 18 -23 7314 2728 5 MP
DP
18 23 -18 23 -18 -23 18 -23 7362 2720 5 MP
DP
18 23 -18 23 -18 -23 18 -23 7410 2704 5 MP
DP
18 23 -18 23 -18 -23 18 -23 7458 2704 5 MP
DP
18 23 -18 23 -18 -23 18 -23 7506 2679 5 MP
DP
18 23 -18 23 -18 -23 18 -23 7554 2671 5 MP
DP
18 23 -18 23 -18 -23 18 -23 7602 2671 5 MP
DP
18 23 -18 23 -18 -23 18 -23 7650 2671 5 MP
DP
18 23 -18 23 -18 -23 18 -23 7699 2610 5 MP
DP
18 23 -18 23 -18 -23 18 -23 7747 2602 5 MP
DP
18 23 -18 23 -18 -23 18 -23 7795 2561 5 MP
DP
18 23 -18 23 -18 -23 18 -23 7843 2553 5 MP
DP
18 23 -18 23 -18 -23 18 -23 7891 2537 5 MP
DP
18 23 -18 23 -18 -23 18 -23 7939 2537 5 MP
DP
18 23 -18 23 -18 -23 18 -23 7987 2443 5 MP
DP
18 23 -18 23 -18 -23 18 -23 8035 2427 5 MP
DP
18 23 -18 23 -18 -23 18 -23 8083 2309 5 MP
DP
18 23 -18 23 -18 -23 18 -23 8131 2175 5 MP
DP
18 23 -18 23 -18 -23 18 -23 8179 2114 5 MP
DP
18 23 -18 23 -18 -23 18 -23 8227 1988 5 MP
DP
18 23 -18 23 -18 -23 18 -23 8275 1740 5 MP
DP
18 23 -18 23 -18 -23 18 -23 8323 915 5 MP
DP
18 23 -18 23 -18 -23 18 -23 8371 354 5 MP
DP
gr

gs 1210 262 7211 2847 rc
/c9 { 0.000000 0.500000 0.000000 sr} bdef
c9
48 -130 48 -167 48 -102 48 21 48 -17 48 -24 48 -33 48 -20 
48 -8 48 8 48 4 48 -16 48 -12 48 24 49 -20 48 -4 
48 20 48 -8 48 -21 48 17 48 0 48 -21 48 4 48 0 
48 -16 48 8 48 -8 48 0 48 -18 49 18 48 4 48 -14 
48 -1 48 -9 48 20 48 0 48 8 48 -21 48 3 48 -3 
48 5 48 -7 48 3 48 -7 49 2 48 11 48 -16 48 22 
48 -12 48 1 48 -5 48 -2 48 1 48 -4 48 -2 48 5 
48 -7 48 -4 48 15 49 -8 48 -9 48 6 48 2 48 -6 
48 6 48 -10 48 6 48 3 48 1 48 1 48 -4 48 5 
48 -6 48 -3 49 8 48 -9 48 4 48 3 48 -14 48 9 
48 -9 48 12 48 -3 48 1 48 -2 48 -6 48 8 48 -4 
48 5 49 -1 48 -5 48 2 48 4 48 -3 48 0 48 1 
48 -6 48 4 48 0 48 -1 48 0 48 -3 48 0 48 -1 
49 2 48 -2 48 6 48 -2 48 -1 48 1 48 -1 48 -3 
48 1 48 -2 48 1 48 2 48 5 48 -6 48 5 49 -7 
48 3 48 0 48 -4 48 1 48 1 48 1 48 -5 48 3 
48 -1 48 2 48 -4 48 1 48 0 48 1 49 -2 48 0 
48 0 48 2 48 0 48 1 48 -4 48 1 48 -1 48 0 
48 -2 48 1 48 -1 48 -2 1258 3108 149 MP stroke
gr

c9
gs 1221 2505 7188 641 rc
0 j
-20 35 -20 -35 40 0 1238 3120 4 MP
DP
-20 35 -20 -35 40 0 1286 3118 4 MP
DP
-20 35 -20 -35 40 0 1334 3117 4 MP
DP
-20 35 -20 -35 40 0 1382 3118 4 MP
DP
-20 35 -20 -35 40 0 1430 3116 4 MP
DP
-20 35 -20 -35 40 0 1478 3116 4 MP
DP
-20 35 -20 -35 40 0 1526 3115 4 MP
DP
-20 35 -20 -35 40 0 1574 3116 4 MP
DP
-20 35 -20 -35 40 0 1622 3112 4 MP
DP
-20 35 -20 -35 40 0 1670 3113 4 MP
DP
-20 35 -20 -35 40 0 1718 3113 4 MP
DP
-20 35 -20 -35 40 0 1766 3115 4 MP
DP
-20 35 -20 -35 40 0 1814 3115 4 MP
DP
-20 35 -20 -35 40 0 1862 3115 4 MP
DP
-20 35 -20 -35 40 0 1911 3113 4 MP
DP
-20 35 -20 -35 40 0 1959 3114 4 MP
DP
-20 35 -20 -35 40 0 2007 3114 4 MP
DP
-20 35 -20 -35 40 0 2055 3115 4 MP
DP
-20 35 -20 -35 40 0 2103 3111 4 MP
DP
-20 35 -20 -35 40 0 2151 3113 4 MP
DP
-20 35 -20 -35 40 0 2199 3112 4 MP
DP
-20 35 -20 -35 40 0 2247 3115 4 MP
DP
-20 35 -20 -35 40 0 2295 3110 4 MP
DP
-20 35 -20 -35 40 0 2343 3111 4 MP
DP
-20 35 -20 -35 40 0 2391 3112 4 MP
DP
-20 35 -20 -35 40 0 2439 3113 4 MP
DP
-20 35 -20 -35 40 0 2487 3109 4 MP
DP
-20 35 -20 -35 40 0 2535 3109 4 MP
DP
-20 35 -20 -35 40 0 2583 3112 4 MP
DP
-20 35 -20 -35 40 0 2632 3105 4 MP
DP
-20 35 -20 -35 40 0 2680 3110 4 MP
DP
-20 35 -20 -35 40 0 2728 3104 4 MP
DP
-20 35 -20 -35 40 0 2776 3109 4 MP
DP
-20 35 -20 -35 40 0 2824 3111 4 MP
DP
-20 35 -20 -35 40 0 2872 3112 4 MP
DP
-20 35 -20 -35 40 0 2920 3110 4 MP
DP
-20 35 -20 -35 40 0 2968 3111 4 MP
DP
-20 35 -20 -35 40 0 3016 3108 4 MP
DP
-20 35 -20 -35 40 0 3064 3107 4 MP
DP
-20 35 -20 -35 40 0 3112 3108 4 MP
DP
-20 35 -20 -35 40 0 3160 3107 4 MP
DP
-20 35 -20 -35 40 0 3208 3105 4 MP
DP
-20 35 -20 -35 40 0 3256 3111 4 MP
DP
-20 35 -20 -35 40 0 3304 3109 4 MP
DP
-20 35 -20 -35 40 0 3353 3111 4 MP
DP
-20 35 -20 -35 40 0 3401 3110 4 MP
DP
-20 35 -20 -35 40 0 3449 3110 4 MP
DP
-20 35 -20 -35 40 0 3497 3107 4 MP
DP
-20 35 -20 -35 40 0 3545 3107 4 MP
DP
-20 35 -20 -35 40 0 3593 3106 4 MP
DP
-20 35 -20 -35 40 0 3641 3106 4 MP
DP
-20 35 -20 -35 40 0 3689 3110 4 MP
DP
-20 35 -20 -35 40 0 3737 3104 4 MP
DP
-20 35 -20 -35 40 0 3785 3105 4 MP
DP
-20 35 -20 -35 40 0 3833 3105 4 MP
DP
-20 35 -20 -35 40 0 3881 3102 4 MP
DP
-20 35 -20 -35 40 0 3929 3106 4 MP
DP
-20 35 -20 -35 40 0 3977 3108 4 MP
DP
-20 35 -20 -35 40 0 4025 3103 4 MP
DP
-20 35 -20 -35 40 0 4074 3102 4 MP
DP
-20 35 -20 -35 40 0 4122 3107 4 MP
DP
-20 35 -20 -35 40 0 4170 3103 4 MP
DP
-20 35 -20 -35 40 0 4218 3111 4 MP
DP
-20 35 -20 -35 40 0 4266 3105 4 MP
DP
-20 35 -20 -35 40 0 4314 3103 4 MP
DP
-20 35 -20 -35 40 0 4362 3104 4 MP
DP
-20 35 -20 -35 40 0 4410 3101 4 MP
DP
-20 35 -20 -35 40 0 4458 3113 4 MP
DP
-20 35 -20 -35 40 0 4506 3104 4 MP
DP
-20 35 -20 -35 40 0 4554 3113 4 MP
DP
-20 35 -20 -35 40 0 4602 3099 4 MP
DP
-20 35 -20 -35 40 0 4650 3102 4 MP
DP
-20 35 -20 -35 40 0 4698 3106 4 MP
DP
-20 35 -20 -35 40 0 4746 3097 4 MP
DP
-20 35 -20 -35 40 0 4795 3105 4 MP
DP
-20 35 -20 -35 40 0 4843 3102 4 MP
DP
-20 35 -20 -35 40 0 4891 3096 4 MP
DP
-20 35 -20 -35 40 0 4939 3101 4 MP
DP
-20 35 -20 -35 40 0 4987 3097 4 MP
DP
-20 35 -20 -35 40 0 5035 3098 4 MP
DP
-20 35 -20 -35 40 0 5083 3099 4 MP
DP
-20 35 -20 -35 40 0 5131 3102 4 MP
DP
-20 35 -20 -35 40 0 5179 3108 4 MP
DP
-20 35 -20 -35 40 0 5227 3098 4 MP
DP
-20 35 -20 -35 40 0 5275 3104 4 MP
DP
-20 35 -20 -35 40 0 5323 3098 4 MP
DP
-20 35 -20 -35 40 0 5371 3100 4 MP
DP
-20 35 -20 -35 40 0 5419 3106 4 MP
DP
-20 35 -20 -35 40 0 5467 3097 4 MP
DP
-20 35 -20 -35 40 0 5516 3089 4 MP
DP
-20 35 -20 -35 40 0 5564 3104 4 MP
DP
-20 35 -20 -35 40 0 5612 3100 4 MP
DP
-20 35 -20 -35 40 0 5660 3093 4 MP
DP
-20 35 -20 -35 40 0 5708 3098 4 MP
DP
-20 35 -20 -35 40 0 5756 3096 4 MP
DP
-20 35 -20 -35 40 0 5804 3092 4 MP
DP
-20 35 -20 -35 40 0 5852 3093 4 MP
DP
-20 35 -20 -35 40 0 5900 3091 4 MP
DP
-20 35 -20 -35 40 0 5948 3086 4 MP
DP
-20 35 -20 -35 40 0 5996 3087 4 MP
DP
-20 35 -20 -35 40 0 6044 3075 4 MP
DP
-20 35 -20 -35 40 0 6092 3097 4 MP
DP
-20 35 -20 -35 40 0 6140 3081 4 MP
DP
-20 35 -20 -35 40 0 6188 3092 4 MP
DP
-20 35 -20 -35 40 0 6237 3094 4 MP
DP
-20 35 -20 -35 40 0 6285 3087 4 MP
DP
-20 35 -20 -35 40 0 6333 3090 4 MP
DP
-20 35 -20 -35 40 0 6381 3083 4 MP
DP
-20 35 -20 -35 40 0 6429 3088 4 MP
DP
-20 35 -20 -35 40 0 6477 3085 4 MP
DP
-20 35 -20 -35 40 0 6525 3088 4 MP
DP
-20 35 -20 -35 40 0 6573 3067 4 MP
DP
-20 35 -20 -35 40 0 6621 3075 4 MP
DP
-20 35 -20 -35 40 0 6669 3075 4 MP
DP
-20 35 -20 -35 40 0 6717 3095 4 MP
DP
-20 35 -20 -35 40 0 6765 3086 4 MP
DP
-20 35 -20 -35 40 0 6813 3085 4 MP
DP
-20 35 -20 -35 40 0 6861 3071 4 MP
DP
-20 35 -20 -35 40 0 6909 3075 4 MP
DP
-20 35 -20 -35 40 0 6958 3093 4 MP
DP
-20 35 -20 -35 40 0 7006 3075 4 MP
DP
-20 35 -20 -35 40 0 7054 3075 4 MP
DP
-20 35 -20 -35 40 0 7102 3067 4 MP
DP
-20 35 -20 -35 40 0 7150 3075 4 MP
DP
-20 35 -20 -35 40 0 7198 3059 4 MP
DP
-20 35 -20 -35 40 0 7246 3059 4 MP
DP
-20 35 -20 -35 40 0 7294 3063 4 MP
DP
-20 35 -20 -35 40 0 7342 3042 4 MP
DP
-20 35 -20 -35 40 0 7390 3042 4 MP
DP
-20 35 -20 -35 40 0 7438 3059 4 MP
DP
-20 35 -20 -35 40 0 7486 3038 4 MP
DP
-20 35 -20 -35 40 0 7534 3030 4 MP
DP
-20 35 -20 -35 40 0 7582 3050 4 MP
DP
-20 35 -20 -35 40 0 7630 3046 4 MP
DP
-20 35 -20 -35 40 0 7679 3026 4 MP
DP
-20 35 -20 -35 40 0 7727 3050 4 MP
DP
-20 35 -20 -35 40 0 7775 3038 4 MP
DP
-20 35 -20 -35 40 0 7823 3022 4 MP
DP
-20 35 -20 -35 40 0 7871 3026 4 MP
DP
-20 35 -20 -35 40 0 7919 3034 4 MP
DP
-20 35 -20 -35 40 0 7967 3026 4 MP
DP
-20 35 -20 -35 40 0 8015 3006 4 MP
DP
-20 35 -20 -35 40 0 8063 2973 4 MP
DP
-20 35 -20 -35 40 0 8111 2949 4 MP
DP
-20 35 -20 -35 40 0 8159 2932 4 MP
DP
-20 35 -20 -35 40 0 8207 2953 4 MP
DP
-20 35 -20 -35 40 0 8255 2851 4 MP
DP
-20 35 -20 -35 40 0 8303 2684 4 MP
DP
-20 35 -20 -35 40 0 8351 2554 4 MP
DP
gr

gs 1210 262 7211 2847 rc
/c10 { 1.000000 0.000000 0.000000 sr} bdef
c10
48 -12 48 -12 48 -29 48 4 48 -16 48 -20 48 -9 48 5 
48 -21 48 16 48 -8 48 0 48 -18 48 -2 49 -9 48 10 
48 0 48 1 48 -6 48 -1 48 -1 48 3 48 -1 48 7 
48 -14 48 2 48 1 48 0 48 -6 49 -2 48 4 48 -4 
48 5 48 -2 48 -3 48 4 48 -11 48 11 48 -3 48 -3 
48 2 48 -1 48 2 48 3 49 -4 48 -3 48 2 48 -10 
48 5 48 3 48 3 48 -1 48 -2 48 -3 48 3 48 -3 
48 2 48 -2 48 -2 49 1 48 1 48 2 48 0 48 -3 
48 1 48 -4 48 2 48 4 48 -6 48 2 48 2 48 1 
48 -3 48 -1 49 0 48 1 48 0 48 -2 48 0 48 2 
48 -2 48 2 48 -1 48 -1 48 2 48 -3 48 2 48 4 
48 -5 49 -2 48 1 48 2 48 -3 48 3 48 -1 48 1 
48 -1 48 1 48 -2 48 -1 48 3 48 -3 48 1 48 0 
49 -2 48 1 48 -1 48 1 48 2 48 -3 48 4 48 -3 
48 0 48 -1 48 0 48 2 48 -3 48 3 48 -2 49 0 
48 0 48 -1 48 1 48 0 48 -1 48 2 48 -2 48 0 
48 1 48 -1 48 0 48 0 48 1 48 0 49 -1 48 0 
48 0 48 0 48 0 48 -1 48 1 48 -1 48 0 48 0 
48 0 48 0 48 -1 48 -1 1258 3108 149 MP stroke
gr

c10
gs 1221 2916 7188 230 rc
0 j
0 -30 -30 0 0 30 30 0 1243 3093 5 MP
DP
0 -30 -30 0 0 30 30 0 1291 3092 5 MP
DP
0 -30 -30 0 0 30 30 0 1339 3091 5 MP
DP
0 -30 -30 0 0 30 30 0 1387 3091 5 MP
DP
0 -30 -30 0 0 30 30 0 1435 3091 5 MP
DP
0 -30 -30 0 0 30 30 0 1483 3091 5 MP
DP
0 -30 -30 0 0 30 30 0 1531 3091 5 MP
DP
0 -30 -30 0 0 30 30 0 1579 3090 5 MP
DP
0 -30 -30 0 0 30 30 0 1627 3091 5 MP
DP
0 -30 -30 0 0 30 30 0 1675 3090 5 MP
DP
0 -30 -30 0 0 30 30 0 1723 3090 5 MP
DP
0 -30 -30 0 0 30 30 0 1771 3090 5 MP
DP
0 -30 -30 0 0 30 30 0 1819 3090 5 MP
DP
0 -30 -30 0 0 30 30 0 1867 3090 5 MP
DP
0 -30 -30 0 0 30 30 0 1916 3089 5 MP
DP
0 -30 -30 0 0 30 30 0 1964 3089 5 MP
DP
0 -30 -30 0 0 30 30 0 2012 3090 5 MP
DP
0 -30 -30 0 0 30 30 0 2060 3090 5 MP
DP
0 -30 -30 0 0 30 30 0 2108 3090 5 MP
DP
0 -30 -30 0 0 30 30 0 2156 3089 5 MP
DP
0 -30 -30 0 0 30 30 0 2204 3090 5 MP
DP
0 -30 -30 0 0 30 30 0 2252 3090 5 MP
DP
0 -30 -30 0 0 30 30 0 2300 3088 5 MP
DP
0 -30 -30 0 0 30 30 0 2348 3090 5 MP
DP
0 -30 -30 0 0 30 30 0 2396 3089 5 MP
DP
0 -30 -30 0 0 30 30 0 2444 3089 5 MP
DP
0 -30 -30 0 0 30 30 0 2492 3090 5 MP
DP
0 -30 -30 0 0 30 30 0 2540 3089 5 MP
DP
0 -30 -30 0 0 30 30 0 2588 3089 5 MP
DP
0 -30 -30 0 0 30 30 0 2637 3089 5 MP
DP
0 -30 -30 0 0 30 30 0 2685 3087 5 MP
DP
0 -30 -30 0 0 30 30 0 2733 3090 5 MP
DP
0 -30 -30 0 0 30 30 0 2781 3087 5 MP
DP
0 -30 -30 0 0 30 30 0 2829 3089 5 MP
DP
0 -30 -30 0 0 30 30 0 2877 3089 5 MP
DP
0 -30 -30 0 0 30 30 0 2925 3088 5 MP
DP
0 -30 -30 0 0 30 30 0 2973 3088 5 MP
DP
0 -30 -30 0 0 30 30 0 3021 3085 5 MP
DP
0 -30 -30 0 0 30 30 0 3069 3089 5 MP
DP
0 -30 -30 0 0 30 30 0 3117 3086 5 MP
DP
0 -30 -30 0 0 30 30 0 3165 3088 5 MP
DP
0 -30 -30 0 0 30 30 0 3213 3089 5 MP
DP
0 -30 -30 0 0 30 30 0 3261 3088 5 MP
DP
0 -30 -30 0 0 30 30 0 3309 3089 5 MP
DP
0 -30 -30 0 0 30 30 0 3358 3087 5 MP
DP
0 -30 -30 0 0 30 30 0 3406 3087 5 MP
DP
0 -30 -30 0 0 30 30 0 3454 3088 5 MP
DP
0 -30 -30 0 0 30 30 0 3502 3085 5 MP
DP
0 -30 -30 0 0 30 30 0 3550 3088 5 MP
DP
0 -30 -30 0 0 30 30 0 3598 3087 5 MP
DP
0 -30 -30 0 0 30 30 0 3646 3085 5 MP
DP
0 -30 -30 0 0 30 30 0 3694 3086 5 MP
DP
0 -30 -30 0 0 30 30 0 3742 3085 5 MP
DP
0 -30 -30 0 0 30 30 0 3790 3086 5 MP
DP
0 -30 -30 0 0 30 30 0 3838 3085 5 MP
DP
0 -30 -30 0 0 30 30 0 3886 3088 5 MP
DP
0 -30 -30 0 0 30 30 0 3934 3085 5 MP
DP
0 -30 -30 0 0 30 30 0 3982 3087 5 MP
DP
0 -30 -30 0 0 30 30 0 4030 3088 5 MP
DP
0 -30 -30 0 0 30 30 0 4079 3086 5 MP
DP
0 -30 -30 0 0 30 30 0 4127 3081 5 MP
DP
0 -30 -30 0 0 30 30 0 4175 3085 5 MP
DP
0 -30 -30 0 0 30 30 0 4223 3087 5 MP
DP
0 -30 -30 0 0 30 30 0 4271 3084 5 MP
DP
0 -30 -30 0 0 30 30 0 4319 3086 5 MP
DP
0 -30 -30 0 0 30 30 0 4367 3085 5 MP
DP
0 -30 -30 0 0 30 30 0 4415 3084 5 MP
DP
0 -30 -30 0 0 30 30 0 4463 3086 5 MP
DP
0 -30 -30 0 0 30 30 0 4511 3084 5 MP
DP
0 -30 -30 0 0 30 30 0 4559 3086 5 MP
DP
0 -30 -30 0 0 30 30 0 4607 3086 5 MP
DP
0 -30 -30 0 0 30 30 0 4655 3084 5 MP
DP
0 -30 -30 0 0 30 30 0 4703 3084 5 MP
DP
0 -30 -30 0 0 30 30 0 4751 3085 5 MP
DP
0 -30 -30 0 0 30 30 0 4800 3085 5 MP
DP
0 -30 -30 0 0 30 30 0 4848 3084 5 MP
DP
0 -30 -30 0 0 30 30 0 4896 3081 5 MP
DP
0 -30 -30 0 0 30 30 0 4944 3082 5 MP
DP
0 -30 -30 0 0 30 30 0 4992 3084 5 MP
DP
0 -30 -30 0 0 30 30 0 5040 3086 5 MP
DP
0 -30 -30 0 0 30 30 0 5088 3080 5 MP
DP
0 -30 -30 0 0 30 30 0 5136 3084 5 MP
DP
0 -30 -30 0 0 30 30 0 5184 3086 5 MP
DP
0 -30 -30 0 0 30 30 0 5232 3082 5 MP
DP
0 -30 -30 0 0 30 30 0 5280 3083 5 MP
DP
0 -30 -30 0 0 30 30 0 5328 3080 5 MP
DP
0 -30 -30 0 0 30 30 0 5376 3080 5 MP
DP
0 -30 -30 0 0 30 30 0 5424 3082 5 MP
DP
0 -30 -30 0 0 30 30 0 5472 3083 5 MP
DP
0 -30 -30 0 0 30 30 0 5521 3084 5 MP
DP
0 -30 -30 0 0 30 30 0 5569 3082 5 MP
DP
0 -30 -30 0 0 30 30 0 5617 3080 5 MP
DP
0 -30 -30 0 0 30 30 0 5665 3082 5 MP
DP
0 -30 -30 0 0 30 30 0 5713 3079 5 MP
DP
0 -30 -30 0 0 30 30 0 5761 3082 5 MP
DP
0 -30 -30 0 0 30 30 0 5809 3079 5 MP
DP
0 -30 -30 0 0 30 30 0 5857 3077 5 MP
DP
0 -30 -30 0 0 30 30 0 5905 3076 5 MP
DP
0 -30 -30 0 0 30 30 0 5953 3079 5 MP
DP
0 -30 -30 0 0 30 30 0 6001 3082 5 MP
DP
0 -30 -30 0 0 30 30 0 6049 3087 5 MP
DP
0 -30 -30 0 0 30 30 0 6097 3077 5 MP
DP
0 -30 -30 0 0 30 30 0 6145 3079 5 MP
DP
0 -30 -30 0 0 30 30 0 6193 3076 5 MP
DP
0 -30 -30 0 0 30 30 0 6242 3072 5 MP
DP
0 -30 -30 0 0 30 30 0 6290 3075 5 MP
DP
0 -30 -30 0 0 30 30 0 6338 3077 5 MP
DP
0 -30 -30 0 0 30 30 0 6386 3076 5 MP
DP
0 -30 -30 0 0 30 30 0 6434 3078 5 MP
DP
0 -30 -30 0 0 30 30 0 6482 3075 5 MP
DP
0 -30 -30 0 0 30 30 0 6530 3072 5 MP
DP
0 -30 -30 0 0 30 30 0 6578 3083 5 MP
DP
0 -30 -30 0 0 30 30 0 6626 3072 5 MP
DP
0 -30 -30 0 0 30 30 0 6674 3076 5 MP
DP
0 -30 -30 0 0 30 30 0 6722 3073 5 MP
DP
0 -30 -30 0 0 30 30 0 6770 3071 5 MP
DP
0 -30 -30 0 0 30 30 0 6818 3076 5 MP
DP
0 -30 -30 0 0 30 30 0 6866 3072 5 MP
DP
0 -30 -30 0 0 30 30 0 6914 3076 5 MP
DP
0 -30 -30 0 0 30 30 0 6963 3074 5 MP
DP
0 -30 -30 0 0 30 30 0 7011 3068 5 MP
DP
0 -30 -30 0 0 30 30 0 7059 3068 5 MP
DP
0 -30 -30 0 0 30 30 0 7107 3069 5 MP
DP
0 -30 -30 0 0 30 30 0 7155 3071 5 MP
DP
0 -30 -30 0 0 30 30 0 7203 3057 5 MP
DP
0 -30 -30 0 0 30 30 0 7251 3064 5 MP
DP
0 -30 -30 0 0 30 30 0 7299 3063 5 MP
DP
0 -30 -30 0 0 30 30 0 7347 3066 5 MP
DP
0 -30 -30 0 0 30 30 0 7395 3065 5 MP
DP
0 -30 -30 0 0 30 30 0 7443 3064 5 MP
DP
0 -30 -30 0 0 30 30 0 7491 3058 5 MP
DP
0 -30 -30 0 0 30 30 0 7539 3059 5 MP
DP
0 -30 -30 0 0 30 30 0 7587 3059 5 MP
DP
0 -30 -30 0 0 30 30 0 7635 3069 5 MP
DP
0 -30 -30 0 0 30 30 0 7684 3060 5 MP
DP
0 -30 -30 0 0 30 30 0 7732 3058 5 MP
DP
0 -30 -30 0 0 30 30 0 7780 3040 5 MP
DP
0 -30 -30 0 0 30 30 0 7828 3040 5 MP
DP
0 -30 -30 0 0 30 30 0 7876 3032 5 MP
DP
0 -30 -30 0 0 30 30 0 7924 3048 5 MP
DP
0 -30 -30 0 0 30 30 0 7972 3027 5 MP
DP
0 -30 -30 0 0 30 30 0 8020 3032 5 MP
DP
0 -30 -30 0 0 30 30 0 8068 3023 5 MP
DP
0 -30 -30 0 0 30 30 0 8116 3003 5 MP
DP
0 -30 -30 0 0 30 30 0 8164 2987 5 MP
DP
0 -30 -30 0 0 30 30 0 8212 2991 5 MP
DP
0 -30 -30 0 0 30 30 0 8260 2962 5 MP
DP
0 -30 -30 0 0 30 30 0 8308 2950 5 MP
DP
0 -30 -30 0 0 30 30 0 8356 2938 5 MP
DP
gr

gs 1210 262 7211 2847 rc
gr

0 sg
4609 3285 mt 
(Mailbox) s
 893 2062 mt  -90 rotate
(File Size \(MB\)) s
90 rotate
1193 3151 mt 
( ) s
8404  304 mt 
( ) s
1 sg
0 546 906 0 0 -546 6692 960 4 MP
PP
-906 0 0 546 906 0 0 -546 6692 960 5 MP stroke
4 w
DO
SO
6 w
0 sg
6692  414 mt 7598  414 L
6692  960 mt 7598  960 L
7598  960 mt 7598  414 L
6692  960 mt 6692  414 L
6692  960 mt 7598  960 L
6692  960 mt 6692  414 L
6692  414 mt 7598  414 L
6692  960 mt 7598  960 L
7598  960 mt 7598  414 L
6692  960 mt 6692  414 L
7164  561 mt 
(PST) s
gs 6692 414 907 547 rc
c8
362 0 6764 519 2 MP stroke
gs 6908 482 75 75 rc
0 j
18 23 -18 23 -18 -23 18 -23 6945 542 5 MP
DP
gr

gr

c8
0 sg
7164  730 mt 
(mbox) s
gs 6692 414 907 547 rc
c9
362 0 6764 687 2 MP stroke
gs 6908 650 75 75 rc
0 j
-20 35 -20 -35 40 0 6925 699 4 MP
DP
gr

gr

c9
0 sg
7164  898 mt 
(EFXML) s
gs 6692 414 907 547 rc
c10
362 0 6764 855 2 MP stroke
gs 6908 818 75 75 rc
0 j
0 -30 -30 0 0 30 30 0 6930 840 5 MP
DP
gr

gr

c10

end %%Color Dict

eplot
%%EndObject

epage
end

showpage

%%Trailer
%%EOF
